%YAML 1.1
%TAG !u! tag:unity3d.com,2011:
--- !u!114 &11400000
MonoBehaviour:
  m_ObjectHideFlags: 0
  m_CorrespondingSourceObject: {fileID: 0}
  m_PrefabInstance: {fileID: 0}
  m_PrefabAsset: {fileID: 0}
  m_GameObject: {fileID: 0}
  m_Enabled: 1
  m_EditorHideFlags: 0
  m_Script: {fileID: 11500000, guid: 01fded9c4748c414d9a96a75a2c347d5, type: 3}
  m_Name: PPSH-41
  m_EditorClassIdentifier: 
  idWeapon: 0
  name: PPSH-41
  damage: 20
  numBalasCargador: 20
  cadenceBullet: 0.5
