%YAML 1.1
%TAG !u! tag:unity3d.com,2011:
--- !u!114 &11400000
MonoBehaviour:
  m_ObjectHideFlags: 0
  m_CorrespondingSourceObject: {fileID: 0}
  m_PrefabInstance: {fileID: 0}
  m_PrefabAsset: {fileID: 0}
  m_GameObject: {fileID: 0}
  m_Enabled: 1
  m_EditorHideFlags: 0
  m_Script: {fileID: 11500000, guid: 37ceed0498f0c3a40a9bce73bc92d538, type: 3}
  m_Name: HealthItem1
  m_EditorClassIdentifier: 
  sprite: {fileID: 21300000, guid: f0b8de68e353e854bb2af165f72118d4, type: 3}
  id: 0
  itemName: Botiquin
  information: Cura 20%
  type: 0
  HealthRestoreValue: 20
